strict digraph "dependency-cruiser output"{
    ordering="out" rankdir="LR" splines="ortho" overlap="false" nodesep="0.16" ranksep="0.18" fontname="Helvetica-bold" fontsize="9" style="rounded,bold,filled" fillcolor="#ffffff" compound="true"
    node [shape="box" style="rounded, filled" height="0.2" color="black" fillcolor="#ffffcc" fontcolor="black" fontname="Helvetica" fontsize="9"]
    edge [arrowhead="normal" arrowsize="0.6" penwidth="2.0" color="#00000033" fontname="Helvetica" fontsize="9"]

    subgraph "cluster_apps" {label="apps" subgraph "cluster_apps/home" {label="home" subgraph "cluster_apps/home/components" {label="components" "apps/home/components/Account.tsx" [label="Account.tsx" URL="apps/home/components/Account.tsx" fillcolor="#bbfeff"] } } }
    "apps/home/components/Account.tsx" -> "apps/home/components/UploadButton.tsx"
    "apps/home/components/Account.tsx" -> "apps/home/components/Avatar.tsx"
    "apps/home/components/Account.tsx" -> "node_modules/@supabase" [penwidth="1.0"]
    "apps/home/components/Account.tsx" -> "libs/model/src/index.ts"
    "apps/home/components/Account.tsx" -> "libs/supabase/src/supabase.ts"
    "apps/home/components/Account.tsx" -> "node_modules/react" [penwidth="1.0"]
    subgraph "cluster_apps" {label="apps" subgraph "cluster_apps/home" {label="home" subgraph "cluster_apps/home/components" {label="components" "apps/home/components/Avatar.tsx" [label="Avatar.tsx" URL="apps/home/components/Avatar.tsx" fillcolor="#bbfeff"] } } }
    "apps/home/components/Avatar.tsx" -> "libs/model/src/index.ts"
    "apps/home/components/Avatar.tsx" -> "libs/supabase/src/supabase.ts"
    "apps/home/components/Avatar.tsx" -> "node_modules/react" [penwidth="1.0"]
    subgraph "cluster_apps" {label="apps" subgraph "cluster_apps/home" {label="home" subgraph "cluster_apps/home/components" {label="components" "apps/home/components/Footer.tsx" [label="Footer.tsx" URL="apps/home/components/Footer.tsx" fillcolor="#bbfeff"] } } }
    "apps/home/components/Footer.tsx" -> "node_modules/react" [penwidth="1.0"]
    subgraph "cluster_apps" {label="apps" subgraph "cluster_apps/home" {label="home" subgraph "cluster_apps/home/components" {label="components" "apps/home/components/ProfileCard.tsx" [label="ProfileCard.tsx" URL="apps/home/components/ProfileCard.tsx" fillcolor="#bbfeff"] } } }
    "apps/home/components/ProfileCard.tsx" -> "apps/home/components/Avatar.tsx"
    "apps/home/components/ProfileCard.tsx" -> "libs/model/src/index.ts"
    subgraph "cluster_apps" {label="apps" subgraph "cluster_apps/home" {label="home" subgraph "cluster_apps/home/components" {label="components" "apps/home/components/ProfileList.tsx" [label="ProfileList.tsx" URL="apps/home/components/ProfileList.tsx" fillcolor="#bbfeff"] } } }
    "apps/home/components/ProfileList.tsx" -> "apps/home/components/ProfileCard.tsx"
    "apps/home/components/ProfileList.tsx" -> "libs/model/src/index.ts"
    "apps/home/components/ProfileList.tsx" -> "libs/supabase/src/supabase.ts"
    "apps/home/components/ProfileList.tsx" -> "node_modules/react" [penwidth="1.0"]
    subgraph "cluster_apps" {label="apps" subgraph "cluster_apps/home" {label="home" subgraph "cluster_apps/home/components" {label="components" "apps/home/components/UploadButton.tsx" [label="UploadButton.tsx" URL="apps/home/components/UploadButton.tsx" fillcolor="#bbfeff"] } } }
    "apps/home/components/UploadButton.tsx" -> "node_modules/react" [penwidth="1.0"]
    subgraph "cluster_apps" {label="apps" subgraph "cluster_apps/home" {label="home" "apps/home/index.d.ts" [label="index.d.ts" URL="apps/home/index.d.ts" fillcolor="#ccffcc"] } }
    subgraph "cluster_apps" {label="apps" subgraph "cluster_apps/home" {label="home" "apps/home/jest.config.js" [label="jest.config.js" tooltip="no-orphans" URL="apps/home/jest.config.js" fillcolor="#ccffcc" fontcolor="orange" color="orange"] } }
    subgraph "cluster_apps" {label="apps" subgraph "cluster_apps/home" {label="home" "apps/home/next-env.d.ts" [label="next-env.d.ts" URL="apps/home/next-env.d.ts" fillcolor="#ddfeff"] } }
    "apps/home/next-env.d.ts" -> "node_modules/next" [penwidth="1.0"]
    subgraph "cluster_apps" {label="apps" subgraph "cluster_apps/home" {label="home" "apps/home/next.config.js" [label="next.config.js" URL="apps/home/next.config.js" ] } }
    "apps/home/next.config.js" -> "node_modules/@next" [penwidth="1.0"]
    "apps/home/next.config.js" -> "node_modules/@nrwl" [penwidth="1.0"]
    subgraph "cluster_apps" {label="apps" subgraph "cluster_apps/home" {label="home" subgraph "cluster_apps/home/pages" {label="pages" "apps/home/pages/_app.tsx" [label="_app.tsx" URL="apps/home/pages/_app.tsx" fillcolor="#bbfeff"] } } }
    "apps/home/pages/_app.tsx" -> "libs/layout/src/index.ts"
    "apps/home/pages/_app.tsx" -> "libs/assets/src/styles/index.css"
    "apps/home/pages/_app.tsx" -> "node_modules/next" [penwidth="1.0"]
    subgraph "cluster_apps" {label="apps" subgraph "cluster_apps/home" {label="home" subgraph "cluster_apps/home/pages" {label="pages" "apps/home/pages/_document.tsx" [label="_document.tsx" URL="apps/home/pages/_document.tsx" fillcolor="#bbfeff"] } } }
    "apps/home/pages/_document.tsx" -> "node_modules/next" [penwidth="1.0"]
    subgraph "cluster_apps" {label="apps" subgraph "cluster_apps/home" {label="home" subgraph "cluster_apps/home/pages" {label="pages" "apps/home/pages/blog.tsx" [label="blog.tsx" URL="apps/home/pages/blog.tsx" fillcolor="#bbfeff"] } } }
    "apps/home/pages/blog.tsx" -> "libs/model/src/index.ts"
    "apps/home/pages/blog.tsx" -> "node_modules/clsx" [penwidth="1.0"]
    subgraph "cluster_apps" {label="apps" subgraph "cluster_apps/home" {label="home" subgraph "cluster_apps/home/pages" {label="pages" "apps/home/pages/home.tsx" [label="home.tsx" URL="apps/home/pages/home.tsx" fillcolor="#bbfeff"] } } }
    "apps/home/pages/home.tsx" -> "libs/views/src/corporate/index.ts"
    subgraph "cluster_apps" {label="apps" subgraph "cluster_apps/home" {label="home" subgraph "cluster_apps/home/pages" {label="pages" "apps/home/pages/login.tsx" [label="login.tsx" URL="apps/home/pages/login.tsx" fillcolor="#bbfeff"] } } }
    subgraph "cluster_apps" {label="apps" subgraph "cluster_apps/home" {label="home" subgraph "cluster_apps/home/pages" {label="pages" "apps/home/pages/resources.tsx" [label="resources.tsx" URL="apps/home/pages/resources.tsx" fillcolor="#bbfeff"] } } }
    subgraph "cluster_apps" {label="apps" subgraph "cluster_apps/home" {label="home" subgraph "cluster_apps/home/pages" {label="pages" "apps/home/pages/support.tsx" [label="support.tsx" URL="apps/home/pages/support.tsx" fillcolor="#bbfeff"] } } }
    subgraph "cluster_apps" {label="apps" subgraph "cluster_apps/home" {label="home" "apps/home/postcss.config.js" [label="postcss.config.js" URL="apps/home/postcss.config.js" ] } }
    "apps/home/postcss.config.js" -> "path" [style="dashed" penwidth="1.0"]
    subgraph "cluster_apps" {label="apps" subgraph "cluster_apps/home" {label="home" subgraph "cluster_apps/home/spec" {label="spec" "apps/home/spec/login.spec.tsx" [label="login.spec.tsx" URL="apps/home/spec/login.spec.tsx" fillcolor="#bbfeff"] } } }
    "apps/home/spec/login.spec.tsx" -> "apps/home/pages/login.tsx"
    "apps/home/spec/login.spec.tsx" -> "node_modules/@testing-library" [xlabel="not-to-dev-dep" tooltip="not-to-dev-dep" penwidth="1.0" fontcolor="#d6c2cd" color="#d6c2cd"]
    subgraph "cluster_apps" {label="apps" subgraph "cluster_apps/home" {label="home" subgraph "cluster_apps/home/spec" {label="spec" "apps/home/spec/resources.spec.tsx" [label="resources.spec.tsx" URL="apps/home/spec/resources.spec.tsx" fillcolor="#bbfeff"] } } }
    "apps/home/spec/resources.spec.tsx" -> "apps/home/pages/resources.tsx"
    "apps/home/spec/resources.spec.tsx" -> "node_modules/@testing-library" [xlabel="not-to-dev-dep" tooltip="not-to-dev-dep" penwidth="1.0" fontcolor="#d6c2cd" color="#d6c2cd"]
    subgraph "cluster_apps" {label="apps" subgraph "cluster_apps/home" {label="home" subgraph "cluster_apps/home/spec" {label="spec" "apps/home/spec/support.spec.tsx" [label="support.spec.tsx" URL="apps/home/spec/support.spec.tsx" fillcolor="#bbfeff"] } } }
    "apps/home/spec/support.spec.tsx" -> "apps/home/pages/support.tsx"
    "apps/home/spec/support.spec.tsx" -> "node_modules/@testing-library" [xlabel="not-to-dev-dep" tooltip="not-to-dev-dep" penwidth="1.0" fontcolor="#d6c2cd" color="#d6c2cd"]
    subgraph "cluster_apps" {label="apps" subgraph "cluster_apps/home" {label="home" "apps/home/tailwind.config.js" [label="tailwind.config.js" URL="apps/home/tailwind.config.js" ] } }
    "apps/home/tailwind.config.js" -> "tailwind-workspace-preset.js"
    "apps/home/tailwind.config.js" -> "node_modules/@nrwl" [penwidth="1.0"]
    "apps/home/tailwind.config.js" -> "path" [style="dashed" penwidth="1.0"]
    subgraph "cluster_libs" {label="libs" subgraph "cluster_libs/assets" {label="assets" subgraph "cluster_libs/assets/src" {label="src" subgraph "cluster_libs/assets/src/styles" {label="styles" "libs/assets/src/styles/index.css" [label="index.css" URL="libs/assets/src/styles/index.css" ] } } } }
    subgraph "cluster_libs" {label="libs" subgraph "cluster_libs/layout" {label="layout" subgraph "cluster_libs/layout/src" {label="src" subgraph "cluster_libs/layout/src/container" {label="container" "libs/layout/src/container/container.module.css" [label="container.module.css" URL="libs/layout/src/container/container.module.css" ] } } } }
    subgraph "cluster_libs" {label="libs" subgraph "cluster_libs/layout" {label="layout" subgraph "cluster_libs/layout/src" {label="src" subgraph "cluster_libs/layout/src/container" {label="container" "libs/layout/src/container/container.tsx" [label="container.tsx" URL="libs/layout/src/container/container.tsx" fillcolor="#bbfeff"] } } } }
    "libs/layout/src/container/container.tsx" -> "libs/layout/src/container/container.module.css"
    "libs/layout/src/container/container.tsx" -> "node_modules/clsx" [xlabel="no-non-package-json" tooltip="no-non-package-json" penwidth="1.0" fontcolor="#d6c2cd" color="#d6c2cd"]
    "libs/layout/src/container/container.tsx" -> "node_modules/react" [xlabel="no-non-package-json" tooltip="no-non-package-json" penwidth="1.0" fontcolor="#d6c2cd" color="#d6c2cd"]
    subgraph "cluster_libs" {label="libs" subgraph "cluster_libs/layout" {label="layout" subgraph "cluster_libs/layout/src" {label="src" subgraph "cluster_libs/layout/src/container" {label="container" "libs/layout/src/container/index.ts" [label="index.ts" URL="libs/layout/src/container/index.ts" fillcolor="#ddfeff"] } } } }
    "libs/layout/src/container/index.ts" -> "libs/layout/src/container/container.tsx"
    subgraph "cluster_libs" {label="libs" subgraph "cluster_libs/layout" {label="layout" subgraph "cluster_libs/layout/src" {label="src" subgraph "cluster_libs/layout/src/footer" {label="footer" "libs/layout/src/footer/SocialIcon.tsx" [label="SocialIcon.tsx" URL="libs/layout/src/footer/SocialIcon.tsx" fillcolor="#bbfeff"] } } } }
    "libs/layout/src/footer/SocialIcon.tsx" -> "libs/layout/src/footer/icons/index.ts"
    "libs/layout/src/footer/SocialIcon.tsx" -> "node_modules/clsx" [xlabel="no-non-package-json" tooltip="no-non-package-json" penwidth="1.0" fontcolor="#d6c2cd" color="#d6c2cd"]
    "libs/layout/src/footer/SocialIcon.tsx" -> "node_modules/react" [xlabel="no-non-package-json" tooltip="no-non-package-json" penwidth="1.0" fontcolor="#d6c2cd" color="#d6c2cd"]
    subgraph "cluster_libs" {label="libs" subgraph "cluster_libs/layout" {label="layout" subgraph "cluster_libs/layout/src" {label="src" subgraph "cluster_libs/layout/src/footer" {label="footer" "libs/layout/src/footer/footer.tsx" [label="footer.tsx" URL="libs/layout/src/footer/footer.tsx" fillcolor="#bbfeff"] } } } }
    "libs/layout/src/footer/footer.tsx" -> "libs/layout/src/footer/SocialIcon.tsx"
    "libs/layout/src/footer/footer.tsx" -> "libs/navigation/src/index.ts"
    "libs/layout/src/footer/footer.tsx" -> "node_modules/clsx" [xlabel="no-non-package-json" tooltip="no-non-package-json" penwidth="1.0" fontcolor="#d6c2cd" color="#d6c2cd"]
    "libs/layout/src/footer/footer.tsx" -> "node_modules/next" [xlabel="no-non-package-json" tooltip="no-non-package-json" penwidth="1.0" fontcolor="#d6c2cd" color="#d6c2cd"]
    "libs/layout/src/footer/footer.tsx" -> "node_modules/react" [xlabel="no-non-package-json" tooltip="no-non-package-json" penwidth="1.0" fontcolor="#d6c2cd" color="#d6c2cd"]
    subgraph "cluster_libs" {label="libs" subgraph "cluster_libs/layout" {label="layout" subgraph "cluster_libs/layout/src" {label="src" subgraph "cluster_libs/layout/src/footer" {label="footer" subgraph "cluster_libs/layout/src/footer/icons" {label="icons" "libs/layout/src/footer/icons/facebook.tsx" [label="facebook.tsx" URL="libs/layout/src/footer/icons/facebook.tsx" fillcolor="#bbfeff"] } } } } }
    "libs/layout/src/footer/icons/facebook.tsx" -> "node_modules/react" [xlabel="no-non-package-json" tooltip="no-non-package-json" penwidth="1.0" fontcolor="#d6c2cd" color="#d6c2cd"]
    subgraph "cluster_libs" {label="libs" subgraph "cluster_libs/layout" {label="layout" subgraph "cluster_libs/layout/src" {label="src" subgraph "cluster_libs/layout/src/footer" {label="footer" subgraph "cluster_libs/layout/src/footer/icons" {label="icons" "libs/layout/src/footer/icons/git-hub.tsx" [label="git-hub.tsx" URL="libs/layout/src/footer/icons/git-hub.tsx" fillcolor="#bbfeff"] } } } } }
    "libs/layout/src/footer/icons/git-hub.tsx" -> "node_modules/react" [xlabel="no-non-package-json" tooltip="no-non-package-json" penwidth="1.0" fontcolor="#d6c2cd" color="#d6c2cd"]
    subgraph "cluster_libs" {label="libs" subgraph "cluster_libs/layout" {label="layout" subgraph "cluster_libs/layout/src" {label="src" subgraph "cluster_libs/layout/src/footer" {label="footer" subgraph "cluster_libs/layout/src/footer/icons" {label="icons" "libs/layout/src/footer/icons/index.ts" [label="index.ts" URL="libs/layout/src/footer/icons/index.ts" fillcolor="#ddfeff"] } } } } }
    "libs/layout/src/footer/icons/index.ts" -> "libs/layout/src/footer/icons/facebook.tsx"
    "libs/layout/src/footer/icons/index.ts" -> "libs/layout/src/footer/icons/git-hub.tsx"
    "libs/layout/src/footer/icons/index.ts" -> "libs/layout/src/footer/icons/instagram.tsx"
    "libs/layout/src/footer/icons/index.ts" -> "libs/layout/src/footer/icons/twitter.tsx"
    subgraph "cluster_libs" {label="libs" subgraph "cluster_libs/layout" {label="layout" subgraph "cluster_libs/layout/src" {label="src" subgraph "cluster_libs/layout/src/footer" {label="footer" subgraph "cluster_libs/layout/src/footer/icons" {label="icons" "libs/layout/src/footer/icons/instagram.tsx" [label="instagram.tsx" URL="libs/layout/src/footer/icons/instagram.tsx" fillcolor="#bbfeff"] } } } } }
    "libs/layout/src/footer/icons/instagram.tsx" -> "node_modules/react" [xlabel="no-non-package-json" tooltip="no-non-package-json" penwidth="1.0" fontcolor="#d6c2cd" color="#d6c2cd"]
    subgraph "cluster_libs" {label="libs" subgraph "cluster_libs/layout" {label="layout" subgraph "cluster_libs/layout/src" {label="src" subgraph "cluster_libs/layout/src/footer" {label="footer" subgraph "cluster_libs/layout/src/footer/icons" {label="icons" "libs/layout/src/footer/icons/twitter.tsx" [label="twitter.tsx" URL="libs/layout/src/footer/icons/twitter.tsx" fillcolor="#bbfeff"] } } } } }
    "libs/layout/src/footer/icons/twitter.tsx" -> "node_modules/react" [xlabel="no-non-package-json" tooltip="no-non-package-json" penwidth="1.0" fontcolor="#d6c2cd" color="#d6c2cd"]
    subgraph "cluster_libs" {label="libs" subgraph "cluster_libs/layout" {label="layout" subgraph "cluster_libs/layout/src" {label="src" subgraph "cluster_libs/layout/src/footer" {label="footer" "libs/layout/src/footer/index.ts" [label="index.ts" URL="libs/layout/src/footer/index.ts" fillcolor="#ddfeff"] } } } }
    "libs/layout/src/footer/index.ts" -> "libs/layout/src/footer/footer.tsx"
    subgraph "cluster_libs" {label="libs" subgraph "cluster_libs/layout" {label="layout" subgraph "cluster_libs/layout/src" {label="src" "libs/layout/src/index.ts" [label="index.ts" URL="libs/layout/src/index.ts" fillcolor="#ddfeff"] } } }
    "libs/layout/src/index.ts" -> "libs/layout/src/container/index.ts"
    "libs/layout/src/index.ts" -> "libs/layout/src/layout.tsx"
    "libs/layout/src/index.ts" -> "libs/layout/src/paper/index.ts"
    subgraph "cluster_libs" {label="libs" subgraph "cluster_libs/layout" {label="layout" subgraph "cluster_libs/layout/src" {label="src" "libs/layout/src/layout.module.css" [label="layout.module.css" URL="libs/layout/src/layout.module.css" ] } } }
    subgraph "cluster_libs" {label="libs" subgraph "cluster_libs/layout" {label="layout" subgraph "cluster_libs/layout/src" {label="src" "libs/layout/src/layout.tsx" [label="layout.tsx" URL="libs/layout/src/layout.tsx" fillcolor="#bbfeff"] } } }
    "libs/layout/src/layout.tsx" -> "libs/layout/src/footer/index.ts"
    "libs/layout/src/layout.tsx" -> "libs/layout/src/layout.module.css"
    "libs/layout/src/layout.tsx" -> "libs/layout/src/paper/index.ts"
    "libs/layout/src/layout.tsx" -> "libs/layout/src/seo.tsx"
    "libs/layout/src/layout.tsx" -> "libs/navigation/src/index.ts"
    "libs/layout/src/layout.tsx" -> "node_modules/clsx" [xlabel="no-non-package-json" tooltip="no-non-package-json" penwidth="1.0" fontcolor="#d6c2cd" color="#d6c2cd"]
    "libs/layout/src/layout.tsx" -> "node_modules/react" [xlabel="no-non-package-json" tooltip="no-non-package-json" penwidth="1.0" fontcolor="#d6c2cd" color="#d6c2cd"]
    subgraph "cluster_libs" {label="libs" subgraph "cluster_libs/layout" {label="layout" subgraph "cluster_libs/layout/src" {label="src" subgraph "cluster_libs/layout/src/paper" {label="paper" "libs/layout/src/paper/index.ts" [label="index.ts" URL="libs/layout/src/paper/index.ts" fillcolor="#ddfeff"] } } } }
    "libs/layout/src/paper/index.ts" -> "libs/layout/src/paper/paper.tsx"
    subgraph "cluster_libs" {label="libs" subgraph "cluster_libs/layout" {label="layout" subgraph "cluster_libs/layout/src" {label="src" subgraph "cluster_libs/layout/src/paper" {label="paper" "libs/layout/src/paper/paper.module.css" [label="paper.module.css" URL="libs/layout/src/paper/paper.module.css" ] } } } }
    subgraph "cluster_libs" {label="libs" subgraph "cluster_libs/layout" {label="layout" subgraph "cluster_libs/layout/src" {label="src" subgraph "cluster_libs/layout/src/paper" {label="paper" "libs/layout/src/paper/paper.tsx" [label="paper.tsx" URL="libs/layout/src/paper/paper.tsx" fillcolor="#bbfeff"] } } } }
    "libs/layout/src/paper/paper.tsx" -> "libs/layout/src/paper/paper.module.css"
    "libs/layout/src/paper/paper.tsx" -> "node_modules/clsx" [xlabel="no-non-package-json" tooltip="no-non-package-json" penwidth="1.0" fontcolor="#d6c2cd" color="#d6c2cd"]
    "libs/layout/src/paper/paper.tsx" -> "node_modules/react" [xlabel="no-non-package-json" tooltip="no-non-package-json" penwidth="1.0" fontcolor="#d6c2cd" color="#d6c2cd"]
    subgraph "cluster_libs" {label="libs" subgraph "cluster_libs/layout" {label="layout" subgraph "cluster_libs/layout/src" {label="src" "libs/layout/src/seo.tsx" [label="seo.tsx" URL="libs/layout/src/seo.tsx" fillcolor="#bbfeff"] } } }
    "libs/layout/src/seo.tsx" -> "libs/util/helpers/src/index.ts"
    "libs/layout/src/seo.tsx" -> "libs/model/src/index.ts"
    "libs/layout/src/seo.tsx" -> "node_modules/next" [xlabel="no-non-package-json" tooltip="no-non-package-json" penwidth="1.0" fontcolor="#d6c2cd" color="#d6c2cd"]
    subgraph "cluster_libs" {label="libs" subgraph "cluster_libs/model" {label="model" subgraph "cluster_libs/model/src" {label="src" "libs/model/src/index.ts" [label="index.ts" URL="libs/model/src/index.ts" fillcolor="#ddfeff"] } } }
    "libs/model/src/index.ts" -> "libs/model/src/lib/constants.ts"
    "libs/model/src/index.ts" -> "libs/model/src/lib/model.ts"
    "libs/model/src/index.ts" -> "libs/model/src/lib/types.ts"
    subgraph "cluster_libs" {label="libs" subgraph "cluster_libs/model" {label="model" subgraph "cluster_libs/model/src" {label="src" subgraph "cluster_libs/model/src/lib" {label="lib" "libs/model/src/lib/constants.ts" [label="constants.ts" URL="libs/model/src/lib/constants.ts" fillcolor="#ddfeff"] } } } }
    subgraph "cluster_libs" {label="libs" subgraph "cluster_libs/model" {label="model" subgraph "cluster_libs/model/src" {label="src" subgraph "cluster_libs/model/src/lib" {label="lib" "libs/model/src/lib/model.ts" [label="model.ts" URL="libs/model/src/lib/model.ts" fillcolor="#ddfeff"] } } } }
    "libs/model/src/lib/model.ts" -> "libs/model/src/lib/types.ts"
    "libs/model/src/lib/model.ts" -> "node_modules/@heroicons" [xlabel="no-non-package-json" tooltip="no-non-package-json" penwidth="1.0" fontcolor="#d6c2cd" color="#d6c2cd"]
    subgraph "cluster_libs" {label="libs" subgraph "cluster_libs/model" {label="model" subgraph "cluster_libs/model/src" {label="src" subgraph "cluster_libs/model/src/lib" {label="lib" "libs/model/src/lib/types.ts" [label="types.ts" URL="libs/model/src/lib/types.ts" fillcolor="#ddfeff"] } } } }
    "libs/model/src/lib/types.ts" -> "node_modules/react" [xlabel="no-non-package-json" tooltip="no-non-package-json" penwidth="1.0" fontcolor="#d6c2cd" color="#d6c2cd"]
    subgraph "cluster_libs" {label="libs" subgraph "cluster_libs/navigation" {label="navigation" subgraph "cluster_libs/navigation/src" {label="src" subgraph "cluster_libs/navigation/src/components" {label="components" subgraph "cluster_libs/navigation/src/components/navbar" {label="navbar" "libs/navigation/src/components/navbar/Navbar.module.css" [label="Navbar.module.css" URL="libs/navigation/src/components/navbar/Navbar.module.css" ] } } } } }
    subgraph "cluster_libs" {label="libs" subgraph "cluster_libs/navigation" {label="navigation" subgraph "cluster_libs/navigation/src" {label="src" subgraph "cluster_libs/navigation/src/components" {label="components" subgraph "cluster_libs/navigation/src/components/navbar" {label="navbar" "libs/navigation/src/components/navbar/Navbar.tsx" [label="Navbar.tsx" URL="libs/navigation/src/components/navbar/Navbar.tsx" fillcolor="#bbfeff"] } } } } }
    "libs/navigation/src/components/navbar/Navbar.tsx" -> "libs/navigation/src/util/helpers.ts"
    "libs/navigation/src/components/navbar/Navbar.tsx" -> "libs/navigation/src/util/types.ts"
    "libs/navigation/src/components/navbar/Navbar.tsx" -> "libs/navigation/src/components/principal-nav/index.ts"
    "libs/navigation/src/components/navbar/Navbar.tsx" -> "libs/navigation/src/components/tab-nav/index.ts"
    "libs/navigation/src/components/navbar/Navbar.tsx" -> "libs/navigation/src/components/navbar/Navbar.module.css"
    "libs/navigation/src/components/navbar/Navbar.tsx" -> "node_modules/@headlessui" [xlabel="no-non-package-json" tooltip="no-non-package-json" penwidth="1.0" fontcolor="#d6c2cd" color="#d6c2cd"]
    "libs/navigation/src/components/navbar/Navbar.tsx" -> "node_modules/@heroicons" [xlabel="no-non-package-json" tooltip="no-non-package-json" penwidth="1.0" fontcolor="#d6c2cd" color="#d6c2cd"]
    "libs/navigation/src/components/navbar/Navbar.tsx" -> "node_modules/@supabase" [xlabel="no-non-package-json" tooltip="no-non-package-json" penwidth="1.0" fontcolor="#d6c2cd" color="#d6c2cd"]
    "libs/navigation/src/components/navbar/Navbar.tsx" -> "node_modules/clsx" [xlabel="no-non-package-json" tooltip="no-non-package-json" penwidth="1.0" fontcolor="#d6c2cd" color="#d6c2cd"]
    "libs/navigation/src/components/navbar/Navbar.tsx" -> "node_modules/next" [xlabel="no-non-package-json" tooltip="no-non-package-json" penwidth="1.0" fontcolor="#d6c2cd" color="#d6c2cd"]
    "libs/navigation/src/components/navbar/Navbar.tsx" -> "node_modules/react" [xlabel="no-non-package-json" tooltip="no-non-package-json" penwidth="1.0" fontcolor="#d6c2cd" color="#d6c2cd"]
    subgraph "cluster_libs" {label="libs" subgraph "cluster_libs/navigation" {label="navigation" subgraph "cluster_libs/navigation/src" {label="src" subgraph "cluster_libs/navigation/src/components" {label="components" subgraph "cluster_libs/navigation/src/components/navbar" {label="navbar" "libs/navigation/src/components/navbar/index.ts" [label="index.ts" URL="libs/navigation/src/components/navbar/index.ts" fillcolor="#ddfeff"] } } } } }
    "libs/navigation/src/components/navbar/index.ts" -> "libs/navigation/src/components/navbar/Navbar.tsx"
    subgraph "cluster_libs" {label="libs" subgraph "cluster_libs/navigation" {label="navigation" subgraph "cluster_libs/navigation/src" {label="src" subgraph "cluster_libs/navigation/src/components" {label="components" subgraph "cluster_libs/navigation/src/components/principal-nav" {label="principal-nav" "libs/navigation/src/components/principal-nav/PrincipalNav.module.css" [label="PrincipalNav.module.css" URL="libs/navigation/src/components/principal-nav/PrincipalNav.module.css" ] } } } } }
    subgraph "cluster_libs" {label="libs" subgraph "cluster_libs/navigation" {label="navigation" subgraph "cluster_libs/navigation/src" {label="src" subgraph "cluster_libs/navigation/src/components" {label="components" subgraph "cluster_libs/navigation/src/components/principal-nav" {label="principal-nav" "libs/navigation/src/components/principal-nav/PrincipalNav.tsx" [label="PrincipalNav.tsx" URL="libs/navigation/src/components/principal-nav/PrincipalNav.tsx" fillcolor="#bbfeff"] } } } } }
    "libs/navigation/src/components/principal-nav/PrincipalNav.tsx" -> "libs/navigation/src/components/principal-nav/PrincipalNav.module.css"
    subgraph "cluster_libs" {label="libs" subgraph "cluster_libs/navigation" {label="navigation" subgraph "cluster_libs/navigation/src" {label="src" subgraph "cluster_libs/navigation/src/components" {label="components" subgraph "cluster_libs/navigation/src/components/principal-nav" {label="principal-nav" "libs/navigation/src/components/principal-nav/index.ts" [label="index.ts" URL="libs/navigation/src/components/principal-nav/index.ts" fillcolor="#ddfeff"] } } } } }
    "libs/navigation/src/components/principal-nav/index.ts" -> "libs/navigation/src/components/principal-nav/PrincipalNav.tsx"
    subgraph "cluster_libs" {label="libs" subgraph "cluster_libs/navigation" {label="navigation" subgraph "cluster_libs/navigation/src" {label="src" subgraph "cluster_libs/navigation/src/components" {label="components" subgraph "cluster_libs/navigation/src/components/tab-nav" {label="tab-nav" "libs/navigation/src/components/tab-nav/TabNav.module.css" [label="TabNav.module.css" URL="libs/navigation/src/components/tab-nav/TabNav.module.css" ] } } } } }
    subgraph "cluster_libs" {label="libs" subgraph "cluster_libs/navigation" {label="navigation" subgraph "cluster_libs/navigation/src" {label="src" subgraph "cluster_libs/navigation/src/components" {label="components" subgraph "cluster_libs/navigation/src/components/tab-nav" {label="tab-nav" "libs/navigation/src/components/tab-nav/TabNav.tsx" [label="TabNav.tsx" URL="libs/navigation/src/components/tab-nav/TabNav.tsx" fillcolor="#bbfeff"] } } } } }
    "libs/navigation/src/components/tab-nav/TabNav.tsx" -> "libs/navigation/src/util/helpers.ts"
    "libs/navigation/src/components/tab-nav/TabNav.tsx" -> "libs/navigation/src/util/types.ts"
    "libs/navigation/src/components/tab-nav/TabNav.tsx" -> "libs/navigation/src/components/tab-nav/TabNav.module.css"
    "libs/navigation/src/components/tab-nav/TabNav.tsx" -> "node_modules/clsx" [xlabel="no-non-package-json" tooltip="no-non-package-json" penwidth="1.0" fontcolor="#d6c2cd" color="#d6c2cd"]
    "libs/navigation/src/components/tab-nav/TabNav.tsx" -> "node_modules/@types" [xlabel="no-non-package-json" tooltip="no-non-package-json" penwidth="1.0" fontcolor="#d6c2cd" color="#d6c2cd"]
    "libs/navigation/src/components/tab-nav/TabNav.tsx" -> "node_modules/next" [xlabel="no-non-package-json" tooltip="no-non-package-json" penwidth="1.0" fontcolor="#d6c2cd" color="#d6c2cd"]
    subgraph "cluster_libs" {label="libs" subgraph "cluster_libs/navigation" {label="navigation" subgraph "cluster_libs/navigation/src" {label="src" subgraph "cluster_libs/navigation/src/components" {label="components" subgraph "cluster_libs/navigation/src/components/tab-nav" {label="tab-nav" "libs/navigation/src/components/tab-nav/index.ts" [label="index.ts" URL="libs/navigation/src/components/tab-nav/index.ts" fillcolor="#ddfeff"] } } } } }
    "libs/navigation/src/components/tab-nav/index.ts" -> "libs/navigation/src/components/tab-nav/TabNav.tsx"
    subgraph "cluster_libs" {label="libs" subgraph "cluster_libs/navigation" {label="navigation" subgraph "cluster_libs/navigation/src" {label="src" "libs/navigation/src/index.ts" [label="index.ts" URL="libs/navigation/src/index.ts" fillcolor="#ddfeff"] } } }
    "libs/navigation/src/index.ts" -> "libs/navigation/src/components/navbar/index.ts"
    "libs/navigation/src/index.ts" -> "libs/navigation/src/components/principal-nav/index.ts"
    "libs/navigation/src/index.ts" -> "libs/navigation/src/components/tab-nav/index.ts"
    "libs/navigation/src/index.ts" -> "libs/navigation/src/navigation/index.ts"
    "libs/navigation/src/index.ts" -> "libs/navigation/src/util/helpers.ts"
    "libs/navigation/src/index.ts" -> "libs/navigation/src/util/types.ts"
    subgraph "cluster_libs" {label="libs" subgraph "cluster_libs/navigation" {label="navigation" subgraph "cluster_libs/navigation/src" {label="src" subgraph "cluster_libs/navigation/src/navigation" {label="navigation" "libs/navigation/src/navigation/index.ts" [label="index.ts" URL="libs/navigation/src/navigation/index.ts" fillcolor="#ddfeff"] } } } }
    "libs/navigation/src/navigation/index.ts" -> "libs/navigation/src/navigation/primary.ts"
    "libs/navigation/src/navigation/index.ts" -> "libs/navigation/src/navigation/social.ts"
    "libs/navigation/src/navigation/index.ts" -> "libs/navigation/src/navigation/user.ts"
    subgraph "cluster_libs" {label="libs" subgraph "cluster_libs/navigation" {label="navigation" subgraph "cluster_libs/navigation/src" {label="src" subgraph "cluster_libs/navigation/src/navigation" {label="navigation" "libs/navigation/src/navigation/primary.ts" [label="primary.ts" URL="libs/navigation/src/navigation/primary.ts" fillcolor="#ddfeff"] } } } }
    "libs/navigation/src/navigation/primary.ts" -> "libs/navigation/src/util/types.ts"
    subgraph "cluster_libs" {label="libs" subgraph "cluster_libs/navigation" {label="navigation" subgraph "cluster_libs/navigation/src" {label="src" subgraph "cluster_libs/navigation/src/navigation" {label="navigation" "libs/navigation/src/navigation/social.ts" [label="social.ts" URL="libs/navigation/src/navigation/social.ts" fillcolor="#ddfeff"] } } } }
    "libs/navigation/src/navigation/social.ts" -> "libs/navigation/src/util/types.ts"
    subgraph "cluster_libs" {label="libs" subgraph "cluster_libs/navigation" {label="navigation" subgraph "cluster_libs/navigation/src" {label="src" subgraph "cluster_libs/navigation/src/navigation" {label="navigation" "libs/navigation/src/navigation/user.ts" [label="user.ts" URL="libs/navigation/src/navigation/user.ts" fillcolor="#ddfeff"] } } } }
    "libs/navigation/src/navigation/user.ts" -> "libs/navigation/src/util/types.ts"
    subgraph "cluster_libs" {label="libs" subgraph "cluster_libs/navigation" {label="navigation" subgraph "cluster_libs/navigation/src" {label="src" subgraph "cluster_libs/navigation/src/util" {label="util" "libs/navigation/src/util/helpers.ts" [label="helpers.ts" URL="libs/navigation/src/util/helpers.ts" fillcolor="#ddfeff"] } } } }
    "libs/navigation/src/util/helpers.ts" -> "libs/navigation/src/util/types.ts"
    subgraph "cluster_libs" {label="libs" subgraph "cluster_libs/navigation" {label="navigation" subgraph "cluster_libs/navigation/src" {label="src" subgraph "cluster_libs/navigation/src/util" {label="util" "libs/navigation/src/util/types.ts" [label="types.ts" URL="libs/navigation/src/util/types.ts" fillcolor="#ddfeff"] } } } }
    subgraph "cluster_libs" {label="libs" subgraph "cluster_libs/supabase" {label="supabase" subgraph "cluster_libs/supabase/src" {label="src" "libs/supabase/src/supabase.ts" [label="supabase.ts" URL="libs/supabase/src/supabase.ts" fillcolor="#ddfeff"] } } }
    "libs/supabase/src/supabase.ts" -> "node_modules/@supabase" [xlabel="no-non-package-json" tooltip="no-non-package-json" penwidth="1.0" fontcolor="#d6c2cd" color="#d6c2cd"]
    "libs/supabase/src/supabase.ts" -> "libs/model/src/index.ts"
    subgraph "cluster_libs" {label="libs" subgraph "cluster_libs/util" {label="util" subgraph "cluster_libs/util/helpers" {label="helpers" subgraph "cluster_libs/util/helpers/src" {label="src" "libs/util/helpers/src/index.ts" [label="index.ts" URL="libs/util/helpers/src/index.ts" fillcolor="#ddfeff"] } } } }
    "libs/util/helpers/src/index.ts" -> "libs/util/helpers/src/lib/getURL.ts"
    "libs/util/helpers/src/index.ts" -> "libs/util/helpers/src/lib/postData.ts"
    "libs/util/helpers/src/index.ts" -> "libs/util/helpers/src/lib/toDateTime.ts"
    subgraph "cluster_libs" {label="libs" subgraph "cluster_libs/util" {label="util" subgraph "cluster_libs/util/helpers" {label="helpers" subgraph "cluster_libs/util/helpers/src" {label="src" subgraph "cluster_libs/util/helpers/src/lib" {label="lib" "libs/util/helpers/src/lib/getURL.ts" [label="getURL.ts" URL="libs/util/helpers/src/lib/getURL.ts" fillcolor="#ddfeff"] } } } } }
    subgraph "cluster_libs" {label="libs" subgraph "cluster_libs/util" {label="util" subgraph "cluster_libs/util/helpers" {label="helpers" subgraph "cluster_libs/util/helpers/src" {label="src" subgraph "cluster_libs/util/helpers/src/lib" {label="lib" "libs/util/helpers/src/lib/postData.ts" [label="postData.ts" URL="libs/util/helpers/src/lib/postData.ts" fillcolor="#ddfeff"] } } } } }
    subgraph "cluster_libs" {label="libs" subgraph "cluster_libs/util" {label="util" subgraph "cluster_libs/util/helpers" {label="helpers" subgraph "cluster_libs/util/helpers/src" {label="src" subgraph "cluster_libs/util/helpers/src/lib" {label="lib" "libs/util/helpers/src/lib/toDateTime.ts" [label="toDateTime.ts" URL="libs/util/helpers/src/lib/toDateTime.ts" fillcolor="#ddfeff"] } } } } }
    subgraph "cluster_libs" {label="libs" subgraph "cluster_libs/views" {label="views" subgraph "cluster_libs/views/src" {label="src" subgraph "cluster_libs/views/src/corporate" {label="corporate" "libs/views/src/corporate/CtaSection.tsx" [label="CtaSection.tsx" URL="libs/views/src/corporate/CtaSection.tsx" fillcolor="#bbfeff"] } } } }
    "libs/views/src/corporate/CtaSection.tsx" -> "node_modules/@heroicons" [xlabel="no-non-package-json" tooltip="no-non-package-json" penwidth="1.0" fontcolor="#d6c2cd" color="#d6c2cd"]
    subgraph "cluster_libs" {label="libs" subgraph "cluster_libs/views" {label="views" subgraph "cluster_libs/views/src" {label="src" subgraph "cluster_libs/views/src/corporate" {label="corporate" "libs/views/src/corporate/FeaturesSection.tsx" [label="FeaturesSection.tsx" URL="libs/views/src/corporate/FeaturesSection.tsx" fillcolor="#bbfeff"] } } } }
    "libs/views/src/corporate/FeaturesSection.tsx" -> "libs/model/src/index.ts"
    subgraph "cluster_libs" {label="libs" subgraph "cluster_libs/views" {label="views" subgraph "cluster_libs/views/src" {label="src" subgraph "cluster_libs/views/src/corporate" {label="corporate" "libs/views/src/corporate/HeroSection.tsx" [label="HeroSection.tsx" URL="libs/views/src/corporate/HeroSection.tsx" fillcolor="#bbfeff"] } } } }
    "libs/views/src/corporate/HeroSection.tsx" -> "libs/views/src/corporate/LoginForm.tsx"
    "libs/views/src/corporate/HeroSection.tsx" -> "node_modules/@heroicons" [xlabel="no-non-package-json" tooltip="no-non-package-json" penwidth="1.0" fontcolor="#d6c2cd" color="#d6c2cd"]
    subgraph "cluster_libs" {label="libs" subgraph "cluster_libs/views" {label="views" subgraph "cluster_libs/views/src" {label="src" subgraph "cluster_libs/views/src/corporate" {label="corporate" "libs/views/src/corporate/LoginForm.tsx" [label="LoginForm.tsx" URL="libs/views/src/corporate/LoginForm.tsx" fillcolor="#bbfeff"] } } } }
    "libs/views/src/corporate/LoginForm.tsx" -> "libs/supabase/src/supabase.ts"
    "libs/views/src/corporate/LoginForm.tsx" -> "node_modules/react" [xlabel="no-non-package-json" tooltip="no-non-package-json" penwidth="1.0" fontcolor="#d6c2cd" color="#d6c2cd"]
    subgraph "cluster_libs" {label="libs" subgraph "cluster_libs/views" {label="views" subgraph "cluster_libs/views/src" {label="src" subgraph "cluster_libs/views/src/corporate" {label="corporate" "libs/views/src/corporate/ServerlessSection.tsx" [label="ServerlessSection.tsx" URL="libs/views/src/corporate/ServerlessSection.tsx" fillcolor="#bbfeff"] } } } }
    subgraph "cluster_libs" {label="libs" subgraph "cluster_libs/views" {label="views" subgraph "cluster_libs/views/src" {label="src" subgraph "cluster_libs/views/src/corporate" {label="corporate" "libs/views/src/corporate/StatsSection.tsx" [label="StatsSection.tsx" URL="libs/views/src/corporate/StatsSection.tsx" fillcolor="#bbfeff"] } } } }
    "libs/views/src/corporate/StatsSection.tsx" -> "node_modules/@heroicons" [xlabel="no-non-package-json" tooltip="no-non-package-json" penwidth="1.0" fontcolor="#d6c2cd" color="#d6c2cd"]
    "libs/views/src/corporate/StatsSection.tsx" -> "node_modules/clsx" [xlabel="no-non-package-json" tooltip="no-non-package-json" penwidth="1.0" fontcolor="#d6c2cd" color="#d6c2cd"]
    subgraph "cluster_libs" {label="libs" subgraph "cluster_libs/views" {label="views" subgraph "cluster_libs/views/src" {label="src" subgraph "cluster_libs/views/src/corporate" {label="corporate" "libs/views/src/corporate/TestimonialSection.tsx" [label="TestimonialSection.tsx" URL="libs/views/src/corporate/TestimonialSection.tsx" fillcolor="#bbfeff"] } } } }
    "libs/views/src/corporate/TestimonialSection.tsx" -> "libs/model/src/index.ts"
    subgraph "cluster_libs" {label="libs" subgraph "cluster_libs/views" {label="views" subgraph "cluster_libs/views/src" {label="src" subgraph "cluster_libs/views/src/corporate" {label="corporate" "libs/views/src/corporate/index.ts" [label="index.ts" URL="libs/views/src/corporate/index.ts" fillcolor="#ddfeff"] } } } }
    "libs/views/src/corporate/index.ts" -> "libs/views/src/corporate/CtaSection.tsx"
    "libs/views/src/corporate/index.ts" -> "libs/views/src/corporate/FeaturesSection.tsx"
    "libs/views/src/corporate/index.ts" -> "libs/views/src/corporate/HeroSection.tsx"
    "libs/views/src/corporate/index.ts" -> "libs/views/src/corporate/LoginForm.tsx"
    "libs/views/src/corporate/index.ts" -> "libs/views/src/corporate/ServerlessSection.tsx"
    "libs/views/src/corporate/index.ts" -> "libs/views/src/corporate/StatsSection.tsx"
    "libs/views/src/corporate/index.ts" -> "libs/views/src/corporate/TestimonialSection.tsx"
    subgraph "cluster_node_modules" {label="node_modules" "node_modules/@headlessui" [label="@headlessui" URL="node_modules/@headlessui" shape="box3d" fillcolor="#c40b0a1a" fontcolor="#c40b0a"] }
    subgraph "cluster_node_modules" {label="node_modules" "node_modules/@heroicons" [label="@heroicons" URL="node_modules/@heroicons" shape="box3d" fillcolor="#c40b0a1a" fontcolor="#c40b0a"] }
    subgraph "cluster_node_modules" {label="node_modules" "node_modules/@next" [label="@next" URL="node_modules/@next" shape="box3d" fillcolor="#c40b0a1a" fontcolor="#c40b0a"] }
    subgraph "cluster_node_modules" {label="node_modules" "node_modules/@nrwl" [label="@nrwl" URL="node_modules/@nrwl" shape="box3d" fillcolor="#c40b0a1a" fontcolor="#c40b0a"] }
    subgraph "cluster_node_modules" {label="node_modules" "node_modules/@supabase" [label="@supabase" URL="node_modules/@supabase" shape="box3d" fillcolor="#c40b0a1a" fontcolor="#c40b0a"] }
    subgraph "cluster_node_modules" {label="node_modules" "node_modules/@tailwindcss" [label="@tailwindcss" URL="node_modules/@tailwindcss" shape="box3d" fillcolor="#c40b0a1a" fontcolor="#c40b0a"] }
    subgraph "cluster_node_modules" {label="node_modules" "node_modules/@testing-library" [label="@testing-library" URL="node_modules/@testing-library" shape="box3d" fillcolor="#c40b0a1a" fontcolor="#c40b0a"] }
    subgraph "cluster_node_modules" {label="node_modules" "node_modules/@types" [label="@types" URL="node_modules/@types" shape="box3d" fillcolor="#c40b0a1a" fontcolor="#c40b0a"] }
    subgraph "cluster_node_modules" {label="node_modules" "node_modules/clsx" [label="clsx" URL="node_modules/clsx" shape="box3d" fillcolor="#c40b0a1a" fontcolor="#c40b0a"] }
    subgraph "cluster_node_modules" {label="node_modules" "node_modules/next" [label="next" URL="node_modules/next" shape="box3d" fillcolor="#c40b0a1a" fontcolor="#c40b0a"] }
    subgraph "cluster_node_modules" {label="node_modules" "node_modules/react" [label="react" URL="node_modules/react" shape="box3d" fillcolor="#c40b0a1a" fontcolor="#c40b0a"] }
    "path" [label="path" color="grey" fontcolor="grey"]
    "tailwind-workspace-preset.js" [label="tailwind-workspace-preset.js" URL="tailwind-workspace-preset.js" ]
    "tailwind-workspace-preset.js" -> "node_modules/@tailwindcss" [xlabel="not-to-dev-dep" tooltip="not-to-dev-dep" penwidth="1.0" fontcolor="#d6c2cd" color="#d6c2cd"]
}
